BasicCPU/p2.vcd
$date
	Tue Dec 07 00:56:34 2021
$end
$version
	Icarus Verilog
$end
$timescale
	1s
$end
$scope module testBench $end
$var wire 4 ! out [3:0] $end
$var reg 1 " clk $end
$var reg 1 # reset $end
$var integer 32 $ i [31:0] $end
$scope module cpu1 $end
$var wire 9 % fib [8:0] $end
$var wire 1 " inclk $end
$var wire 4 & out [3:0] $end
$var wire 1 # reset $end
$var wire 1 ' skipif $end
$var wire 3 ( s [0:2] $end
$var wire 4 ) result [3:0] $end
$var wire 1 * ready $end
$var wire 12 + instruction [11:0] $end
$var wire 1 , halt $end
$var wire 1 - cin $end
$var wire 1 . bsig $end
$var reg 4 / a [3:0] $end
$var reg 4 0 b [3:0] $end
$var reg 1 1 clk $end
$var reg 1 2 skip $end
$scope module alu $end
$var wire 4 3 a [3:0] $end
$var wire 4 4 b [3:0] $end
$var wire 3 5 s [0:2] $end
$var wire 4 6 fl [3:0] $end
$var wire 4 7 fa [3:0] $end
$var wire 4 8 f [3:0] $end
$var wire 1 - cin $end
$scope module adder $end
$var wire 4 9 a [3:0] $end
$var wire 4 : b [3:0] $end
$var wire 2 ; s [0:1] $end
$var wire 4 < y [3:0] $end
$var wire 4 = sel1 [3:0] $end
$var wire 4 > sel0 [3:0] $end
$var wire 4 ? f [3:0] $end
$var wire 1 - cin $end
$var wire 4 @ c [3:0] $end
$scope module b0 $end
$var wire 1 A a $end
$var wire 1 B b $end
$var wire 1 C f $end
$var wire 1 D c_out $end
$var wire 1 - c_in $end
$upscope $end
$scope module b1 $end
$var wire 1 E a $end
$var wire 1 F b $end
$var wire 1 G c_in $end
$var wire 1 H f $end
$var wire 1 I c_out $end
$upscope $end
$scope module b2 $end
$var wire 1 J a $end
$var wire 1 K b $end
$var wire 1 L c_in $end
$var wire 1 M f $end
$var wire 1 N c_out $end
$upscope $end
$scope module b3 $end
$var wire 1 O a $end
$var wire 1 P b $end
$var wire 1 Q c_in $end
$var wire 1 R f $end
$var wire 1 S c_out $end
$upscope $end
$upscope $end
$scope module logics $end
$var wire 4 T AND [0:3] $end
$var wire 4 U SET [0:3] $end
$var wire 4 V XOR [0:3] $end
$var wire 4 W a [3:0] $end
$var wire 4 X b [3:0] $end
$var wire 1 Y s $end
$var wire 2 Z selector [0:1] $end
$var wire 4 [ f [3:0] $end
$var wire 1 - cin $end
$var wire 4 \ OR [0:3] $end
$scope module selector4 $end
$var wire 4 ] a [0:3] $end
$var wire 4 ^ b [0:3] $end
$var wire 4 _ c [0:3] $end
$var wire 4 ` d [0:3] $end
$var wire 2 a sel [0:1] $end
$var wire 4 b muxB [3:0] $end
$var wire 4 c muxA [3:0] $end
$var wire 4 d f [3:0] $end
$scope module ma $end
$var wire 4 e a [3:0] $end
$var wire 4 f b [3:0] $end
$var wire 4 g nsel [3:0] $end
$var wire 4 h o1 [3:0] $end
$var wire 4 i o2 [3:0] $end
$var wire 1 j sel $end
$var wire 4 k msel [3:0] $end
$var wire 4 l f [3:0] $end
$upscope $end
$scope module mb $end
$var wire 4 m a [3:0] $end
$var wire 4 n b [3:0] $end
$var wire 4 o nsel [3:0] $end
$var wire 4 p o1 [3:0] $end
$var wire 4 q o2 [3:0] $end
$var wire 1 r sel $end
$var wire 4 s msel [3:0] $end
$var wire 4 t f [3:0] $end
$upscope $end
$scope module mc $end
$var wire 4 u a [3:0] $end
$var wire 4 v b [3:0] $end
$var wire 4 w nsel [3:0] $end
$var wire 4 x o1 [3:0] $end
$var wire 4 y o2 [3:0] $end
$var wire 1 z sel $end
$var wire 4 { msel [3:0] $end
$var wire 4 | f [3:0] $end
$upscope $end
$upscope $end
$upscope $end
$scope module selector2 $end
$var wire 4 } a [3:0] $end
$var wire 4 ~ b [3:0] $end
$var wire 4 !" nsel [3:0] $end
$var wire 4 "" o1 [3:0] $end
$var wire 4 #" o2 [3:0] $end
$var wire 1 $" sel $end
$var wire 4 %" msel [3:0] $end
$var wire 4 &" f [3:0] $end
$upscope $end
$upscope $end
$scope module decoder $end
$var wire 1 . bOut $end
$var wire 1 - cOut $end
$var wire 1 1 clk $end
$var wire 1 , haltOut $end
$var wire 4 '" opCode [3:0] $end
$var wire 1 # reset $end
$var wire 3 (" sOut [0:2] $end
$var wire 1 ' skipOut $end
$var reg 1 )" b $end
$var reg 1 - c $end
$var reg 3 *" s [0:2] $end
$var reg 1 +" skip $end
$var reg 1 ," stop $end
$upscope $end
$scope module microcode $end
$var wire 1 " clk $end
$var wire 9 -" n [8:0] $end
$var wire 1 # reset $end
$var reg 12 ." opcode [11:0] $end
$var reg 1 * ready $end
$var integer 32 /" counter [31:0] $end
$upscope $end
$upscope $end
$upscope $end
$enddefinitions $end
#0
$dumpvars
b11111111111111111111111111111111 /"
bx ."
b10110110 -"
0,"
0+"
bx *"
x)"
bx ("
bx '"
bx &"
bx %"
x$"
bx #"
bx ""
bx !"
bx ~
bx }
bx |
bx {
xz
bx y
bx x
bx w
bx v
bx u
bx t
bx s
xr
bx q
bx p
bx o
bx n
bx m
bx l
bx k
xj
bx i
b0 h
bx g
bx f
b0 e
bx d
bx c
bx b
bx a
bx `
bx _
bx ^
b0 ]
bx \
bx [
bx Z
xY
b0 X
bx W
bx V
bx U
b0 T
xS
xR
xQ
xP
xO
xN
xM
xL
xK
xJ
xI
xH
xG
xF
xE
xD
xC
xB
xA
bx @
bx ?
bx >
bx =
bx <
bx ;
b0 :
bx 9
bx 8
bx 7
bx 6
bx 5
b0 4
bx 3
02
x1
b0 0
bx /
x.
x-
0,
bx +
x*
bx )
bx (
0'
b0 &
b10110110 %
bx $
1#
x"
b0 !
$end
#1
b0 #"
b0 6
b0 [
b0 d
b0 |
b0 ~
b0 y
b0 b
b0 t
b0 v
b0 p
b0 x
0A
0E
0J
0O
b0 V
b0 _
b0 m
b0 q
b0 c
b0 l
b0 u
b0 i
b0 U
b0 `
b0 n
b0 \
b0 ^
b0 f
b0 /
b0 3
b0 9
b0 W
b0 '"
b10000 +
b10000 ."
b0 /"
01
0"
0#
#4
0S
1R
1C
1H
0Q
b1111 7
b1111 ?
b1111 }
1M
0N
0L
1B
1F
1K
1P
0I
b0 )
b0 8
b0 &"
b0 ""
b0 w
b1111 <
b1111 g
b1111 o
0G
b0 !"
b1111 {
1z
b1111 >
b1111 =
b0 k
0j
b0 s
0r
b0 @
0D
b1111 %"
1$"
1Y
b11 ;
b1 Z
b1 a
0-
0.
0)"
b111 (
b111 5
b111 ("
b111 *"
11
1"
b0 $
#9
1L
1I
0H
1S
0R
b101 )
b101 8
b101 &"
b101 #"
1G
0C
1Q
b100 7
b100 ?
b100 }
1M
b101 6
b101 [
b101 d
b101 |
b101 ~
b101 y
1D
b1111 @
1N
b101 b
b101 t
b101 v
b101 p
1A
1J
b101 V
b101 _
b101 m
b101 U
b101 `
b101 n
b101 \
b101 ^
b101 f
b101 /
b101 3
b101 9
b101 W
b10100101 +
b10100101 ."
b1 /"
01
0"
b1 $
#14
11
1"
b10 $
#19
0S
1R
0Q
0L
0I
1H
b0 )
b0 8
b0 &"
b0 #"
0G
1C
b1111 7
b1111 ?
b1111 }
1M
b0 6
b0 [
b0 d
b0 |
b0 ~
b0 y
0D
b0 @
0N
b0 b
b0 t
b0 v
b0 p
0A
0J
b0 V
b0 _
b0 m
b0 U
b0 `
b0 n
b0 \
b0 ^
b0 f
b0 /
b0 3
b0 9
b0 W
b101 '"
b10110100000 +
b10110100000 ."
b101 !
b101 &
b10 /"
01
0"
b11 $
#24
1L
1I
0H
1S
0R
1G
0C
1Q
b100 7
b100 ?
b100 }
1M
b101 6
b101 [
b101 d
b101 |
b101 ~
b101 y
1D
b1111 @
1N
b101 b
b101 t
b101 v
b101 p
1A
1J
b101 V
b101 _
b101 m
b101 U
b101 `
b101 n
b101 \
b101 ^
b101 f
b101 /
b101 3
b101 9
b101 W
b100 )
b100 8
b100 &"
b100 ""
b1111 !"
b0 %"
0$"
b110 (
b110 5
b110 ("
b110 *"
11
1"
b100 $
#29
0S
1R
0Q
0L
0I
1H
b1111 )
b1111 8
b1111 &"
b1111 ""
0G
1C
b1111 7
b1111 ?
b1111 }
1M
b0 6
b0 [
b0 d
b0 |
b0 ~
b0 y
0D
b0 @
0N
b0 b
b0 t
b0 v
b0 p
0A
0J
b0 V
b0 _
b0 m
b0 U
b0 `
b0 n
b0 \
b0 ^
b0 f
b0 /
b0 3
b0 9
b0 W
b0 '"
b10000 +
b10000 ."
b100 !
b100 &
b11 /"
01
0"
b101 $
#34
b0 )
b0 8
b0 &"
b0 ""
b0 !"
b1111 %"
1$"
b111 (
b111 5
b111 ("
b111 *"
11
1"
b110 $
#39
1Q
1N
0M
b1010 )
b1010 8
b1010 &"
b1010 #"
1L
0H
b1001 7
b1001 ?
b1001 }
1R
b1010 6
b1010 [
b1010 d
b1010 |
b1010 ~
b1010 y
1I
b1110 @
1S
b1010 b
b1010 t
b1010 v
b1010 p
1E
1O
b1010 V
b1010 _
b1010 m
b1010 U
b1010 `
b1010 n
b1010 \
b1010 ^
b1010 f
b1010 /
b1010 3
b1010 9
b1010 W
b1001 '"
b100100001010 +
b100100001010 ."
b0 !
b0 &
b100 /"
01
0"
b111 $
#44
1'
1+"
11
1"
b1000 $
#49
1Q
1N
0M
b1 )
b1 8
b1 &"
b1 #"
1G
0C
1L
0H
b0 7
b0 ?
b0 }
0R
b1 6
b1 [
b1 d
b1 |
b1 ~
b1 y
1D
1I
b1111 @
1S
b1 b
b1 t
b1 v
b1 p
1A
0E
0O
b1 V
b1 _
b1 m
b1 U
b1 `
b1 n
b1 \
b1 ^
b1 f
b1 /
b1 3
b1 9
b1 W
b0 '"
b1 +
b1 ."
b101 /"
01
0"
b1001 $
#54
0'
0+"
11
1"
b1010 $
#59
b1010 )
b1010 8
b1010 &"
b1010 #"
0G
1C
0H
b1001 7
b1001 ?
b1001 }
1R
b1010 6
b1010 [
b1010 d
b1010 |
b1010 ~
b1010 y
0D
1I
b1110 @
1S
b1010 b
b1010 t
b1010 v
b1010 p
0A
1E
1O
b1010 V
b1010 _
b1010 m
b1010 U
b1010 `
b1010 n
b1010 \
b1010 ^
b1010 f
b1010 /
b1010 3
b1010 9
b1010 W
b1001 '"
b100100001010 +
b100100001010 ."
b1 !
b1 &
b110 /"
01
0"
b1011 $
#64
1'
1+"
11
1"
b1100 $
#69
0Q
0N
1M
b0 )
b0 8
b0 &"
b0 #"
0L
1H
b1111 7
b1111 ?
b1111 }
1R
b0 6
b0 [
b0 d
b0 |
b0 ~
b0 y
0I
b0 @
0S
b0 b
b0 t
b0 v
b0 p
0E
0O
b0 V
b0 _
b0 m
b0 U
b0 `
b0 n
b0 \
b0 ^
b0 f
b0 /
b0 3
b0 9
b0 W
b101 '"
b10110100000 +
b10110100000 ."
b111 /"
01
0"
b1101 $
#74
1S
0R
1Q
b11 7
b11 ?
b11 }
0M
b100 6
b100 [
b100 d
b100 |
b100 ~
b100 y
b1100 @
1N
b100 b
b100 t
b100 v
b100 p
1J
b100 V
b100 _
b100 m
b100 U
b100 `
b100 n
b100 \
b100 ^
b100 f
b100 /
b100 3
b100 9
b100 W
b11 )
b11 8
b11 &"
b11 ""
b1111 !"
b0 %"
0$"
0'
0+"
b110 (
b110 5
b110 ("
b110 *"
11
1"
b1110 $
#79
1S
0R
b10 )
b10 8
b10 &"
b10 ""
1G
0C
1L
1H
1Q
b10 7
b10 ?
b10 }
0M
b11 6
b11 [
b11 d
b11 |
b11 ~
b11 y
1D
1I
b1111 @
1N
b11 b
b11 t
b11 v
b11 p
1A
1E
0J
b11 V
b11 _
b11 m
b11 U
b11 `
b11 n
b11 \
b11 ^
b11 f
b11 /
b11 3
b11 9
b11 W
b1 '"
b111110000 +
b111110000 ."
b11 !
b11 &
b1000 /"
01
0"
b1111 $
#84
b1 b
b1 t
b1 v
b1 p
0E
b1 V
b1 _
b1 m
b1 U
b1 `
b1 n
b1 \
b1 ^
b1 f
b1 /
b1 3
b1 9
b1 W
0L
b1 )
b1 8
b1 &"
b1 ""
0G
1C
0H
0Q
0M
b1 7
b1 ?
b1 }
0R
0D
0I
0N
b0 @
0S
0B
0F
0K
0P
b0 6
b0 [
b0 d
b0 |
b0 ~
b0 y
b1111 w
b0 <
b0 {
0z
b0 >
b0 =
b0 Z
b0 a
0Y
b0 ;
b0 (
b0 5
b0 ("
b0 *"
11
1"
b10000 $
#89
b11 )
b11 8
b11 &"
b11 ""
b11 7
b11 ?
b11 }
1H
b11 b
b11 t
b11 v
b11 p
1E
b11 V
b11 _
b11 m
b11 U
b11 `
b11 n
b11 \
b11 ^
b11 f
b11 /
b11 3
b11 9
b11 W
b1001 '"
b100100001010 +
b100100001010 ."
b1 !
b1 &
b1001 /"
01
0"
b10001 $
#90
b0 !
b0 &
1#
#94
11
1"
b10010 $
#99
b11 !
b11 &
b11111111111111111111111111111111 /"
01
0"
b10011 $
#100
b0 )
b0 8
b0 &"
b0 ""
0C
b0 7
b0 ?
b0 }
0H
b0 b
b0 t
b0 v
b0 p
0A
0E
b0 V
b0 _
b0 m
b0 U
b0 `
b0 n
b0 \
b0 ^
b0 f
b0 /
b0 3
b0 9
b0 W
0#
#104
12
1'
1+"
11
1"
b10100 $
#109
b11 )
b11 8
b11 &"
b11 ""
1C
b11 7
b11 ?
b11 }
1H
b11 b
b11 t
b11 v
b11 p
1A
1E
b11 V
b11 _
b11 m
b11 U
b11 `
b11 n
b11 \
b11 ^
b11 f
b11 /
b11 3
b11 9
b11 W
b0 '"
b10000 +
b10000 ."
b0 /"
01
0"
b10101 $
#114
b0 b
b0 t
b0 v
b0 p
0A
0E
b0 V
b0 _
b0 m
b0 U
b0 `
b0 n
b0 \
b0 ^
b0 f
b0 /
b0 3
b0 9
b0 W
0S
0Q
0N
0G
1C
0L
1H
1M
b1111 7
b1111 ?
b1111 }
1R
0D
b0 @
0I
b0 #"
1B
1F
1K
1P
b0 )
b0 8
b0 &"
b0 ""
b0 6
b0 [
b0 d
b0 |
b0 ~
b0 y
b0 w
b1111 <
b0 !"
b1111 {
1z
b1111 >
b1111 =
b1111 %"
1$"
b1 Z
b1 a
1Y
b11 ;
0'
0+"
b111 (
b111 5
b111 ("
b111 *"
11
1"
b10110 $
#119
1L
1I
0H
1S
0R
b101 )
b101 8
b101 &"
b101 #"
1G
0C
1Q
b100 7
b100 ?
b100 }
1M
b101 6
b101 [
b101 d
b101 |
b101 ~
b101 y
1D
b1111 @
1N
b101 b
b101 t
b101 v
b101 p
1A
1J
b101 V
b101 _
b101 m
b101 U
b101 `
b101 n
b101 \
b101 ^
b101 f
b101 /
b101 3
b101 9
b101 W
b10100101 +
b10100101 ."
b1 /"
02
01
0"
b10111 $
#124
11
1"
b11000 $
#129
0S
1R
0Q
0L
0I
1H
b0 )
b0 8
b0 &"
b0 #"
0G
1C
b1111 7
b1111 ?
b1111 }
1M
b0 6
b0 [
b0 d
b0 |
b0 ~
b0 y
0D
b0 @
0N
b0 b
b0 t
b0 v
b0 p
0A
0J
b0 V
b0 _
b0 m
b0 U
b0 `
b0 n
b0 \
b0 ^
b0 f
b0 /
b0 3
b0 9
b0 W
b101 '"
b10110100000 +
b10110100000 ."
b101 !
b101 &
b10 /"
01
0"
b11001 $
#134
1L
1I
0H
1S
0R
1G
0C
1Q
b100 7
b100 ?
b100 }
1M
b101 6
b101 [
b101 d
b101 |
b101 ~
b101 y
1D
b1111 @
1N
b101 b
b101 t
b101 v
b101 p
1A
1J
b101 V
b101 _
b101 m
b101 U
b101 `
b101 n
b101 \
b101 ^
b101 f
b101 /
b101 3
b101 9
b101 W
b100 )
b100 8
b100 &"
b100 ""
b1111 !"
b0 %"
0$"
b110 (
b110 5
b110 ("
b110 *"
11
1"
b11010 $
#139
0S
1R
0Q
0L
0I
1H
b1111 )
b1111 8
b1111 &"
b1111 ""
0G
1C
b1111 7
b1111 ?
b1111 }
1M
b0 6
b0 [
b0 d
b0 |
b0 ~
b0 y
0D
b0 @
0N
b0 b
b0 t
b0 v
b0 p
0A
0J
b0 V
b0 _
b0 m
b0 U
b0 `
b0 n
b0 \
b0 ^
b0 f
b0 /
b0 3
b0 9
b0 W
b0 '"
b10000 +
b10000 ."
b100 !
b100 &
b11 /"
01
0"
b11011 $
#144
b0 )
b0 8
b0 &"
b0 ""
b0 !"
b1111 %"
1$"
b111 (
b111 5
b111 ("
b111 *"
11
1"
b11100 $
#149
1Q
1N
0M
b1010 )
b1010 8
b1010 &"
b1010 #"
1L
0H
b1001 7
b1001 ?
b1001 }
1R
b1010 6
b1010 [
b1010 d
b1010 |
b1010 ~
b1010 y
1I
b1110 @
1S
b1010 b
b1010 t
b1010 v
b1010 p
1E
1O
b1010 V
b1010 _
b1010 m
b1010 U
b1010 `
b1010 n
b1010 \
b1010 ^
b1010 f
b1010 /
b1010 3
b1010 9
b1010 W
b1001 '"
b100100001010 +
b100100001010 ."
b0 !
b0 &
b100 /"
01
0"
b11101 $
#154
1'
1+"
11
1"
b11110 $
#159
1Q
1N
0M
b1 )
b1 8
b1 &"
b1 #"
1G
0C
1L
0H
b0 7
b0 ?
b0 }
0R
b1 6
b1 [
b1 d
b1 |
b1 ~
b1 y
1D
1I
b1111 @
1S
b1 b
b1 t
b1 v
b1 p
1A
0E
0O
b1 V
b1 _
b1 m
b1 U
b1 `
b1 n
b1 \
b1 ^
b1 f
b1 /
b1 3
b1 9
b1 W
b0 '"
b1 +
b1 ."
b101 /"
01
0"
b11111 $
#164
0'
0+"
11
1"
b100000 $
#169
b1010 )
b1010 8
b1010 &"
b1010 #"
0G
1C
0H
b1001 7
b1001 ?
b1001 }
1R
b1010 6
b1010 [
b1010 d
b1010 |
b1010 ~
b1010 y
0D
1I
b1110 @
1S
b1010 b
b1010 t
b1010 v
b1010 p
0A
1E
1O
b1010 V
b1010 _
b1010 m
b1010 U
b1010 `
b1010 n
b1010 \
b1010 ^
b1010 f
b1010 /
b1010 3
b1010 9
b1010 W
b1001 '"
b100100001010 +
b100100001010 ."
b1 !
b1 &
b110 /"
01
0"
b100001 $
#174
1'
1+"
11
1"
b100010 $
#179
0Q
0N
1M
b0 )
b0 8
b0 &"
b0 #"
0L
1H
b1111 7
b1111 ?
b1111 }
1R
b0 6
b0 [
b0 d
b0 |
b0 ~
b0 y
0I
b0 @
0S
b0 b
b0 t
b0 v
b0 p
0E
0O
b0 V
b0 _
b0 m
b0 U
b0 `
b0 n
b0 \
b0 ^
b0 f
b0 /
b0 3
b0 9
b0 W
b101 '"
b10110100000 +
b10110100000 ."
b111 /"
01
0"
b100011 $
#184
1S
0R
1Q
b11 7
b11 ?
b11 }
0M
b100 6
b100 [
b100 d
b100 |
b100 ~
b100 y
b1100 @
1N
b100 b
b100 t
b100 v
b100 p
1J
b100 V
b100 _
b100 m
b100 U
b100 `
b100 n
b100 \
b100 ^
b100 f
b100 /
b100 3
b100 9
b100 W
b11 )
b11 8
b11 &"
b11 ""
b1111 !"
b0 %"
0$"
0'
0+"
b110 (
b110 5
b110 ("
b110 *"
11
1"
b100100 $
#189
1S
0R
b10 )
b10 8
b10 &"
b10 ""
1G
0C
1L
1H
1Q
b10 7
b10 ?
b10 }
0M
b11 6
b11 [
b11 d
b11 |
b11 ~
b11 y
1D
1I
b1111 @
1N
b11 b
b11 t
b11 v
b11 p
1A
1E
0J
b11 V
b11 _
b11 m
b11 U
b11 `
b11 n
b11 \
b11 ^
b11 f
b11 /
b11 3
b11 9
b11 W
b1 '"
b111110000 +
b111110000 ."
b11 !
b11 &
b1000 /"
01
0"
b100101 $
#194
b1 b
b1 t
b1 v
b1 p
0E
b1 V
b1 _
b1 m
b1 U
b1 `
b1 n
b1 \
b1 ^
b1 f
b1 /
b1 3
b1 9
b1 W
0L
b1 )
b1 8
b1 &"
b1 ""
0G
1C
0H
0Q
0M
b1 7
b1 ?
b1 }
0R
0D
0I
0N
b0 @
0S
0B
0F
0K
0P
b0 6
b0 [
b0 d
b0 |
b0 ~
b0 y
b1111 w
b0 <
b0 {
0z
b0 >
b0 =
b0 Z
b0 a
0Y
b0 ;
b0 (
b0 5
b0 ("
b0 *"
11
1"
b100110 $
#199
b11 )
b11 8
b11 &"
b11 ""
b11 7
b11 ?
b11 }
1H
b11 b
b11 t
b11 v
b11 p
1E
b11 V
b11 _
b11 m
b11 U
b11 `
b11 n
b11 \
b11 ^
b11 f
b11 /
b11 3
b11 9
b11 W
b1001 '"
b100100001010 +
b100100001010 ."
b1 !
b1 &
b1001 /"
01
0"
b100111 $
#204
1'
1+"
11
1"
b101000 $
#209
b1 )
b1 8
b1 &"
b1 ""
b1 7
b1 ?
b1 }
0H
b1 b
b1 t
b1 v
b1 p
0E
b1 V
b1 _
b1 m
b1 U
b1 `
b1 n
b1 \
b1 ^
b1 f
b1 /
b1 3
b1 9
b1 W
b1 '"
b100100000 +
b100100000 ."
b1010 /"
01
0"
b101001 $
#214
0'
0+"
11
1"
b101010 $
#219
b11 )
b11 8
b11 &"
b11 ""
b11 7
b11 ?
b11 }
1H
b11 b
b11 t
b11 v
b11 p
1E
b11 V
b11 _
b11 m
b11 U
b11 `
b11 n
b11 \
b11 ^
b11 f
b11 /
b11 3
b11 9
b11 W
b1001 '"
b100100001010 +
b100100001010 ."
b1011 /"
01
0"
b101011 $
#224
1'
1+"
11
1"
b101100 $
#229
b0 )
b0 8
b0 &"
b0 ""
0C
b0 7
b0 ?
b0 }
0H
b0 b
b0 t
b0 v
b0 p
0A
0E
b0 V
b0 _
b0 m
b0 U
b0 `
b0 n
b0 \
b0 ^
b0 f
b0 /
b0 3
b0 9
b0 W
b10 '"
b1000000001 +
b1000000001 ."
b1100 /"
01
0"
b101101 $
#234
b1 )
b1 8
b1 &"
b1 ""
b1 7
b1 ?
b1 }
1C
b1 6
b1 [
b1 d
b1 |
b1 ~
b1 y
b1 b
b1 t
b1 v
b1 p
1A
b1 V
b1 _
b1 m
b1 U
b1 `
b1 n
b1 \
b1 ^
b1 f
b1 /
b1 3
b1 9
b1 W
b0 w
b1111 {
1z
b1111 >
b1 Z
b1 a
1Y
b10 ;
1.
1)"
0'
0+"
b100 (
b100 5
b100 ("
b100 *"
11
1"
b101110 $
#239
1M
1L
1I
b100 )
b100 8
b100 &"
b100 ""
1G
0C
b100 7
b100 ?
b100 }
0H
b11 @
1D
b10 6
b10 [
b10 d
b10 |
b10 ~
b10 y
1B
1F
b1 c
b1 l
b1 u
b1 h
b10 b
b10 t
b10 v
b10 p
b11 <
b1 T
b1 ]
b1 e
b10 V
b10 _
b10 m
b100 \
b100 ^
b100 f
b11 0
b11 4
b11 :
b11 X
b1001 '"
b100100001010 +
b100100001010 ."
b1101 /"
01
0"
b101111 $
#244
1'
1+"
11
1"
b110000 $
#249
0M
0L
b1 )
b1 8
b1 &"
b1 ""
0I
0G
b1 7
b1 ?
b1 }
1C
b1 6
b1 [
b1 d
b1 |
b1 ~
b1 y
0F
b0 @
0D
b0 c
b0 l
b0 u
b0 h
b1 b
b1 t
b1 v
b1 p
b1 <
0A
b0 T
b0 ]
b0 e
b1 V
b1 _
b1 m
b1 0
b1 4
b1 :
b1 X
b0 U
b0 `
b0 n
b1 \
b1 ^
b1 f
b0 /
b0 3
b0 9
b0 W
b1 '"
b100010010 +
b100010010 ."
b1110 /"
01
0"
b110001 $
#254
1A
b0 0
b0 4
b0 :
b0 X
b1 U
b1 `
b1 n
b1 \
b1 ^
b1 f
b1 /
b1 3
b1 9
b1 W
b1 )
b1 8
b1 &"
b1 ""
b1 7
b1 ?
b1 }
1C
0B
b0 6
b0 [
b0 d
b0 |
b0 ~
b0 y
b1111 w
b0 <
b0 {
0z
b0 >
b0 Z
b0 a
0Y
b0 ;
0.
0)"
0'
0+"
b0 (
b0 5
b0 ("
b0 *"
11
1"
b110010 $
#259
b11 )
b11 8
b11 &"
b11 ""
b11 7
b11 ?
b11 }
1H
b11 b
b11 t
b11 v
b11 p
1E
b11 V
b11 _
b11 m
b11 U
b11 `
b11 n
b11 \
b11 ^
b11 f
b11 /
b11 3
b11 9
b11 W
b1001 '"
b100100001010 +
b100100001010 ."
b1111 /"
01
0"
b110011 $
#264
1'
1+"
11
1"
b110100 $
#269
b1 )
b1 8
b1 &"
b1 ""
b1 7
b1 ?
b1 }
0H
b1 b
b1 t
b1 v
b1 p
0E
b1 V
b1 _
b1 m
b1 U
b1 `
b1 n
b1 \
b1 ^
b1 f
b1 /
b1 3
b1 9
b1 W
b101 '"
b10110100000 +
b10110100000 ."
b10000 /"
01
0"
b110101 $
#274
b11 b
b11 t
b11 v
b11 p
1E
b11 V
b11 _
b11 m
b11 U
b11 `
b11 n
b11 \
b11 ^
b11 f
b11 /
b11 3
b11 9
b11 W
1S
1Q
1N
1L
1I
b10 )
b10 8
b10 &"
b10 ""
1G
0C
1H
0M
b10 7
b10 ?
b10 }
0R
b1111 @
1D
1B
1F
1K
1P
b11 6
b11 [
b11 d
b11 |
b11 ~
b11 y
b0 w
b1111 <
b1111 {
1z
b1111 >
b1111 =
b1 Z
b1 a
1Y
b11 ;
0'
0+"
b110 (
b110 5
b110 ("
b110 *"
11
1"
b110110 $
#279
1I
0H
b1 )
b1 8
b1 &"
b1 ""
0G
b1 7
b1 ?
b1 }
1C
b10 6
b10 [
b10 d
b10 |
b10 ~
b10 y
b1110 @
0D
b10 b
b10 t
b10 v
b10 p
0A
b10 V
b10 _
b10 m
b10 U
b10 `
b10 n
b10 \
b10 ^
b10 f
b10 /
b10 3
b10 9
b10 W
b1 '"
b111110000 +
b111110000 ."
b10 !
b10 &
b10001 /"
01
0"
b110111 $
#284
b1 b
b1 t
b1 v
b1 p
1A
0E
b1 V
b1 _
b1 m
b1 U
b1 `
b1 n
b1 \
b1 ^
b1 f
b1 /
b1 3
b1 9
b1 W
b1 )
b1 8
b1 &"
b1 ""
1C
0L
0H
0Q
0M
b1 7
b1 ?
b1 }
0R
0I
0N
b0 @
0S
0B
0F
0K
0P
b0 6
b0 [
b0 d
b0 |
b0 ~
b0 y
b1111 w
b0 <
b0 {
0z
b0 >
b0 =
b0 Z
b0 a
0Y
b0 ;
b0 (
b0 5
b0 ("
b0 *"
11
1"
b111000 $
#289
b10 )
b10 8
b10 &"
b10 ""
0C
b10 7
b10 ?
b10 }
1H
b10 b
b10 t
b10 v
b10 p
0A
1E
b10 V
b10 _
b10 m
b10 U
b10 `
b10 n
b10 \
b10 ^
b10 f
b10 /
b10 3
b10 9
b10 W
b1001 '"
b100100001010 +
b100100001010 ."
b1 !
b1 &
b10010 /"
01
0"
b111001 $
#294
1'
1+"
11
1"
b111010 $
#299
b1 )
b1 8
b1 &"
b1 ""
1C
b1 7
b1 ?
b1 }
0H
b1 b
b1 t
b1 v
b1 p
1A
0E
b1 V
b1 _
b1 m
b1 U
b1 `
b1 n
b1 \
b1 ^
b1 f
b1 /
b1 3
b1 9
b1 W
b1 '"
b100100000 +
b100100000 ."
b10011 /"
01
0"
b111011 $
#304
0'
0+"
11
1"
b111100 $
#309
b10 )
b10 8
b10 &"
b10 ""
0C
b10 7
b10 ?
b10 }
1H
b10 b
b10 t
b10 v
b10 p
0A
1E
b10 V
b10 _
b10 m
b10 U
b10 `
b10 n
b10 \
b10 ^
b10 f
b10 /
b10 3
b10 9
b10 W
b1001 '"
b100100001010 +
b100100001010 ."
b10100 /"
01
0"
b111101 $
#314
1'
1+"
11
1"
b111110 $
#319
b1 )
b1 8
b1 &"
b1 ""
1C
b1 7
b1 ?
b1 }
0H
b1 b
b1 t
b1 v
b1 p
1A
0E
b1 V
b1 _
b1 m
b1 U
b1 `
b1 n
b1 \
b1 ^
b1 f
b1 /
b1 3
b1 9
b1 W
b10 '"
b1000000001 +
b1000000001 ."
b10101 /"
01
0"
b111111 $
#324
1H
b10 )
b10 8
b10 &"
b10 ""
1G
b10 7
b10 ?
b10 }
0C
b1 @
1D
1B
b1 c
b1 l
b1 u
b1 h
b0 b
b0 t
b0 v
b0 p
b1 <
b1 T
b1 ]
b1 e
b0 V
b0 _
b0 m
b10 \
b10 ^
b10 f
b1 0
b1 4
b1 :
b1 X
b0 6
b0 [
b0 d
b0 |
b0 ~
b0 y
b0 w
b1111 {
1z
b1111 >
b1 Z
b1 a
1Y
b10 ;
1.
1)"
0'
0+"
b100 (
b100 5
b100 ("
b100 *"
11
1"
b1000000 $
#329
1M
b100 )
b100 8
b100 &"
b100 ""
0G
0C
1L
b100 7
b100 ?
b100 }
0H
0B
1F
0D
b10 @
1I
b10 c
b10 l
b10 u
b10 h
b10 <
0A
1E
b10 T
b10 ]
b10 e
b10 0
b10 4
b10 :
b10 X
b10 U
b10 `
b10 n
b100 \
b100 ^
b100 f
b10 /
b10 3
b10 9
b10 W
b1001 '"
b100100001010 +
b100100001010 ."
b10 !
b10 &
b10110 /"
01
0"
b1000001 $
#334
1'
1+"
11
1"
b1000010 $
#339
1G
0M
b10 )
b10 8
b10 &"
b10 ""
1D
0C
0L
b10 7
b10 ?
b10 }
1H
1B
0F
b1 @
0I
b1 c
b1 l
b1 u
b1 h
b1 <
1A
0E
b1 T
b1 ]
b1 e
b1 0
b1 4
b1 :
b1 X
b1 U
b1 `
b1 n
b10 \
b10 ^
b10 f
b1 /
b1 3
b1 9
b1 W
b1 '"
b100010010 +
b100010010 ."
b10111 /"
01
0"
b1000011 $
